EESchema Schematic File Version 4
LIBS:midpwr-stripe-cache
EELAYER 26 0
EELAYER END
$Descr A4 11693 8268
encoding utf-8
Sheet 1 1
Title ""
Date ""
Rev ""
Comp ""
Comment1 ""
Comment2 ""
Comment3 ""
Comment4 ""
$EndDescr
$Comp
L Connector_Generic:Conn_01x03 J2
U 1 1 5A8951D5
P 2100 950
F 0 "J2" H 2180 992 50  0000 L CNN
F 1 "Conn_01x03" H 2180 901 50  0000 L CNN
F 2 "mod:3_1206_half" H 2100 950 50  0001 C CNN
F 3 "~" H 2100 950 50  0001 C CNN
	1    2100 950 
	1    0    0    1   
$EndComp
$Comp
L Connector_Generic:Conn_01x03 J1
U 1 1 5A895211
P 1025 950
F 0 "J1" H 1105 992 50  0000 L CNN
F 1 "Conn_01x03" H 1105 901 50  0000 L CNN
F 2 "mod:3_1206_half" H 1025 950 50  0001 C CNN
F 3 "~" H 1025 950 50  0001 C CNN
	1    1025 950 
	-1   0    0    -1  
$EndComp
$Comp
L power:VCC #PWR01
U 1 1 5A89540B
P 1275 825
F 0 "#PWR01" H 1275 675 50  0001 C CNN
F 1 "VCC" H 1292 998 50  0000 C CNN
F 2 "" H 1275 825 50  0001 C CNN
F 3 "" H 1275 825 50  0001 C CNN
	1    1275 825 
	1    0    0    -1  
$EndComp
$Comp
L power:GND #PWR02
U 1 1 5A895446
P 1250 1100
F 0 "#PWR02" H 1250 850 50  0001 C CNN
F 1 "GND" H 1255 927 50  0000 C CNN
F 2 "" H 1250 1100 50  0001 C CNN
F 3 "" H 1250 1100 50  0001 C CNN
	1    1250 1100
	1    0    0    -1  
$EndComp
Text GLabel 1450 1050 3    50   Input ~ 0
CURSHARE
Wire Wire Line
	1225 950  1450 950 
Wire Wire Line
	1225 850  1275 850 
Wire Wire Line
	1275 850  1275 825 
Connection ~ 1275 850 
Wire Wire Line
	1450 1050 1450 950 
Connection ~ 1450 950 
Wire Wire Line
	1450 950  1500 950 
$Comp
L device:LED D1
U 1 1 5A8956C6
P 2225 2400
F 0 "D1" V 2263 2283 50  0000 R CNN
F 1 "LED" V 2172 2283 50  0000 R CNN
F 2 "LEDs:LED_PLCC_2835" H 2225 2400 50  0001 C CNN
F 3 "~" H 2225 2400 50  0001 C CNN
	1    2225 2400
	0    -1   -1   0   
$EndComp
$Comp
L device:LED D2
U 1 1 5A895749
P 2225 2750
F 0 "D2" V 2263 2633 50  0000 R CNN
F 1 "LED" V 2172 2633 50  0000 R CNN
F 2 "LEDs:LED_PLCC_2835" H 2225 2750 50  0001 C CNN
F 3 "~" H 2225 2750 50  0001 C CNN
	1    2225 2750
	0    -1   -1   0   
$EndComp
$Comp
L device:LED D3
U 1 1 5A8957A1
P 2225 3125
F 0 "D3" V 2263 3008 50  0000 R CNN
F 1 "LED" V 2172 3008 50  0000 R CNN
F 2 "LEDs:LED_PLCC_2835" H 2225 3125 50  0001 C CNN
F 3 "~" H 2225 3125 50  0001 C CNN
	1    2225 3125
	0    -1   -1   0   
$EndComp
$Comp
L device:LED D4
U 1 1 5A895803
P 2225 3475
F 0 "D4" V 2263 3358 50  0000 R CNN
F 1 "LED" V 2172 3358 50  0000 R CNN
F 2 "LEDs:LED_PLCC_2835" H 2225 3475 50  0001 C CNN
F 3 "~" H 2225 3475 50  0001 C CNN
	1    2225 3475
	0    -1   -1   0   
$EndComp
$Comp
L device:LED D5
U 1 1 5A8959A9
P 2225 3825
F 0 "D5" V 2263 3708 50  0000 R CNN
F 1 "LED" V 2172 3708 50  0000 R CNN
F 2 "LEDs:LED_PLCC_2835" H 2225 3825 50  0001 C CNN
F 3 "~" H 2225 3825 50  0001 C CNN
	1    2225 3825
	0    -1   -1   0   
$EndComp
$Comp
L device:LED D6
U 1 1 5A8959B0
P 2225 4175
F 0 "D6" V 2263 4058 50  0000 R CNN
F 1 "LED" V 2172 4058 50  0000 R CNN
F 2 "LEDs:LED_PLCC_2835" H 2225 4175 50  0001 C CNN
F 3 "~" H 2225 4175 50  0001 C CNN
	1    2225 4175
	0    -1   -1   0   
$EndComp
$Comp
L power:VCC #PWR03
U 1 1 5A895AB8
P 2225 2200
F 0 "#PWR03" H 2225 2050 50  0001 C CNN
F 1 "VCC" H 2242 2373 50  0000 C CNN
F 2 "" H 2225 2200 50  0001 C CNN
F 3 "" H 2225 2200 50  0001 C CNN
	1    2225 2200
	1    0    0    -1  
$EndComp
$Comp
L device:LED D7
U 1 1 5A8959B7
P 2225 4550
F 0 "D7" V 2263 4433 50  0000 R CNN
F 1 "LED" V 2172 4433 50  0000 R CNN
F 2 "LEDs:LED_PLCC_2835" H 2225 4550 50  0001 C CNN
F 3 "~" H 2225 4550 50  0001 C CNN
	1    2225 4550
	0    -1   -1   0   
$EndComp
Wire Wire Line
	2225 2200 2225 2250
Wire Wire Line
	2225 2550 2225 2600
Wire Wire Line
	2225 2900 2225 2975
Wire Wire Line
	2225 3625 2225 3675
Wire Wire Line
	2225 3975 2225 4025
Wire Wire Line
	2225 4325 2225 4400
$Comp
L Transistor_FET:FDMS86150ET100 Q1
U 1 1 5A89605B
P 2325 5000
F 0 "Q1" H 2531 5046 50  0000 L CNN
F 1 "FDMS86150ET100" H 2531 4955 50  0000 L CNN
F 2 "Housings_SON:Diodes_PowerDI3333-8" H 2525 4925 50  0001 L CIN
F 3 "https://www.fairchildsemi.com/datasheets/FD/FDMS86150ET100.pdf" V 2325 5000 50  0001 L CNN
	1    2325 5000
	-1   0    0    -1  
$EndComp
$Comp
L device:D_Zener D8
U 1 1 5A896D70
P 2775 4600
F 0 "D8" H 2775 4816 50  0000 C CNN
F 1 "18V" H 2775 4725 50  0000 C CNN
F 2 "Diodes_SMD:SOD-123" H 2775 4600 50  0001 C CNN
F 3 "https://en.wikipedia.org/wiki/Zener_diode" H 2775 4600 50  0001 C CNN
	1    2775 4600
	1    0    0    -1  
$EndComp
Wire Wire Line
	3500 5000 3550 5000
Wire Wire Line
	2225 4800 2225 4700
$Comp
L device:R R1
U 1 1 5A89732D
P 2225 5400
F 0 "R1" H 2295 5446 50  0000 L CNN
F 1 "1" H 2295 5355 50  0000 L CNN
F 2 "Resistors_SMD:R_1206" V 2155 5400 50  0001 C CNN
F 3 "" H 2225 5400 50  0001 C CNN
	1    2225 5400
	1    0    0    -1  
$EndComp
$Comp
L power:GND #PWR04
U 1 1 5A897557
P 2225 5600
F 0 "#PWR04" H 2225 5350 50  0001 C CNN
F 1 "GND" H 2230 5427 50  0000 C CNN
F 2 "" H 2225 5600 50  0001 C CNN
F 3 "" H 2225 5600 50  0001 C CNN
	1    2225 5600
	1    0    0    -1  
$EndComp
Wire Wire Line
	2225 5600 2225 5550
Wire Wire Line
	2225 5250 2225 5225
$Comp
L Amplifier_Operational:LM358_DFN U1
U 1 1 5A897B2F
P 4800 5000
F 0 "U1" H 5141 5046 50  0000 L CNN
F 1 "LM358_DFN" H 5141 4955 50  0000 L CNN
F 2 "Housings_DFN_QFN:DFN-8-1EP_2x2mm_Pitch0.5mm" H 4800 5000 50  0001 C CNN
F 3 "www.st.com/resource/en/datasheet/lm358.pdf" H 4800 5000 50  0001 C CNN
	1    4800 5000
	-1   0    0    -1  
$EndComp
Wire Wire Line
	4500 5000 3900 5000
Text GLabel 5250 4825 1    50   Input ~ 0
CURSHARE
Wire Wire Line
	5100 4900 5250 4900
Wire Wire Line
	5250 4900 5250 4825
$Comp
L device:C C3
U 1 1 5A898C53
P 4700 4625
F 0 "C3" V 4952 4625 50  0000 C CNN
F 1 "100n" V 4861 4625 50  0000 C CNN
F 2 "Resistors_SMD:R_0603" H 4738 4475 50  0001 C CNN
F 3 "" H 4700 4625 50  0001 C CNN
	1    4700 4625
	0    -1   -1   0   
$EndComp
$Comp
L power:GND #PWR05
U 1 1 5A898D76
P 4500 4675
F 0 "#PWR05" H 4500 4425 50  0001 C CNN
F 1 "GND" H 4505 4502 50  0000 C CNN
F 2 "" H 4500 4675 50  0001 C CNN
F 3 "" H 4500 4675 50  0001 C CNN
	1    4500 4675
	1    0    0    -1  
$EndComp
Wire Wire Line
	4500 4675 4500 4625
Wire Wire Line
	4500 4625 4550 4625
$Comp
L power:VCC #PWR06
U 1 1 5A89911F
P 4900 4550
F 0 "#PWR06" H 4900 4400 50  0001 C CNN
F 1 "VCC" H 4917 4723 50  0000 C CNN
F 2 "" H 4900 4550 50  0001 C CNN
F 3 "" H 4900 4550 50  0001 C CNN
	1    4900 4550
	1    0    0    -1  
$EndComp
Wire Wire Line
	4850 4625 4900 4625
Wire Wire Line
	4900 4625 4900 4550
Wire Wire Line
	4900 4700 4900 4625
Connection ~ 4900 4625
$Comp
L power:GND #PWR07
U 1 1 5A89988D
P 4900 5400
F 0 "#PWR07" H 4900 5150 50  0001 C CNN
F 1 "GND" H 4905 5227 50  0000 C CNN
F 2 "" H 4900 5400 50  0001 C CNN
F 3 "" H 4900 5400 50  0001 C CNN
	1    4900 5400
	1    0    0    -1  
$EndComp
Wire Wire Line
	4900 5300 4900 5350
Wire Wire Line
	4800 5300 4800 5350
Wire Wire Line
	4800 5350 4900 5350
Connection ~ 4900 5350
Wire Wire Line
	4900 5350 4900 5400
$Comp
L power:GND #PWR08
U 1 1 5A89A3EF
P 3000 4625
F 0 "#PWR08" H 3000 4375 50  0001 C CNN
F 1 "GND" H 3005 4452 50  0000 C CNN
F 2 "" H 3000 4625 50  0001 C CNN
F 3 "" H 3000 4625 50  0001 C CNN
	1    3000 4625
	1    0    0    -1  
$EndComp
Wire Wire Line
	2625 4600 2550 4600
Wire Wire Line
	2550 4600 2550 5000
Wire Wire Line
	2525 5000 2550 5000
Connection ~ 2550 5000
Wire Wire Line
	2550 5000 2875 5000
Wire Wire Line
	2925 4600 3000 4600
Wire Wire Line
	3000 4600 3000 4625
Wire Wire Line
	2225 5225 2650 5225
Wire Wire Line
	2650 5225 2650 5375
Wire Wire Line
	2650 5900 5200 5900
Wire Wire Line
	5200 5900 5200 5100
Wire Wire Line
	5200 5100 5100 5100
Connection ~ 2225 5225
Wire Wire Line
	2225 5225 2225 5200
$Comp
L device:R R3
U 1 1 5A89B571
P 5425 5100
F 0 "R3" V 5218 5100 50  0000 C CNN
F 1 "220" V 5309 5100 50  0000 C CNN
F 2 "Resistors_SMD:R_0603" V 5355 5100 50  0001 C CNN
F 3 "" H 5425 5100 50  0001 C CNN
	1    5425 5100
	0    1    1    0   
$EndComp
Wire Wire Line
	5200 5100 5275 5100
Connection ~ 5200 5100
$Comp
L device:LED D11
U 1 1 5A89DBFA
P 10175 2400
F 0 "D11" V 10213 2283 50  0000 R CNN
F 1 "LED" V 10122 2283 50  0000 R CNN
F 2 "LEDs:LED_PLCC_2835" H 10175 2400 50  0001 C CNN
F 3 "~" H 10175 2400 50  0001 C CNN
	1    10175 2400
	0    1    -1   0   
$EndComp
$Comp
L device:LED D12
U 1 1 5A89DC01
P 10175 2750
F 0 "D12" V 10213 2633 50  0000 R CNN
F 1 "LED" V 10122 2633 50  0000 R CNN
F 2 "LEDs:LED_PLCC_2835" H 10175 2750 50  0001 C CNN
F 3 "~" H 10175 2750 50  0001 C CNN
	1    10175 2750
	0    1    -1   0   
$EndComp
$Comp
L device:LED D13
U 1 1 5A89DC08
P 10175 3125
F 0 "D13" V 10213 3008 50  0000 R CNN
F 1 "LED" V 10122 3008 50  0000 R CNN
F 2 "LEDs:LED_PLCC_2835" H 10175 3125 50  0001 C CNN
F 3 "~" H 10175 3125 50  0001 C CNN
	1    10175 3125
	0    1    -1   0   
$EndComp
$Comp
L device:LED D14
U 1 1 5A89DC0F
P 10175 3475
F 0 "D14" V 10213 3358 50  0000 R CNN
F 1 "LED" V 10122 3358 50  0000 R CNN
F 2 "LEDs:LED_PLCC_2835" H 10175 3475 50  0001 C CNN
F 3 "~" H 10175 3475 50  0001 C CNN
	1    10175 3475
	0    1    -1   0   
$EndComp
$Comp
L device:LED D15
U 1 1 5A89DC16
P 10175 3825
F 0 "D15" V 10213 3708 50  0000 R CNN
F 1 "LED" V 10122 3708 50  0000 R CNN
F 2 "LEDs:LED_PLCC_2835" H 10175 3825 50  0001 C CNN
F 3 "~" H 10175 3825 50  0001 C CNN
	1    10175 3825
	0    1    -1   0   
$EndComp
$Comp
L device:LED D16
U 1 1 5A89DC1D
P 10175 4175
F 0 "D16" V 10213 4058 50  0000 R CNN
F 1 "LED" V 10122 4058 50  0000 R CNN
F 2 "LEDs:LED_PLCC_2835" H 10175 4175 50  0001 C CNN
F 3 "~" H 10175 4175 50  0001 C CNN
	1    10175 4175
	0    1    -1   0   
$EndComp
$Comp
L power:VCC #PWR09
U 1 1 5A89DC24
P 10175 2200
F 0 "#PWR09" H 10175 2050 50  0001 C CNN
F 1 "VCC" H 10192 2373 50  0000 C CNN
F 2 "" H 10175 2200 50  0001 C CNN
F 3 "" H 10175 2200 50  0001 C CNN
	1    10175 2200
	-1   0    0    -1  
$EndComp
$Comp
L device:LED D17
U 1 1 5A89DC2A
P 10175 4550
F 0 "D17" V 10213 4433 50  0000 R CNN
F 1 "LED" V 10122 4433 50  0000 R CNN
F 2 "LEDs:LED_PLCC_2835" H 10175 4550 50  0001 C CNN
F 3 "~" H 10175 4550 50  0001 C CNN
	1    10175 4550
	0    1    -1   0   
$EndComp
Wire Wire Line
	10175 2200 10175 2250
Wire Wire Line
	10175 2550 10175 2600
Wire Wire Line
	10175 2900 10175 2975
Wire Wire Line
	10175 3625 10175 3675
Wire Wire Line
	10175 3975 10175 4025
Wire Wire Line
	10175 4325 10175 4400
$Comp
L Transistor_FET:FDMS86150ET100 Q4
U 1 1 5A89DC37
P 10075 5000
F 0 "Q4" H 10281 5046 50  0000 L CNN
F 1 "FDMS86150ET100" H 10281 4955 50  0000 L CNN
F 2 "Housings_SON:Diodes_PowerDI3333-8" H 10275 4925 50  0001 L CIN
F 3 "https://www.fairchildsemi.com/datasheets/FD/FDMS86150ET100.pdf" V 10075 5000 50  0001 L CNN
	1    10075 5000
	1    0    0    -1  
$EndComp
$Comp
L device:D_Zener D10
U 1 1 5A89DC4C
P 9625 4600
F 0 "D10" H 9625 4816 50  0000 C CNN
F 1 "18V" H 9625 4725 50  0000 C CNN
F 2 "Diodes_SMD:SOD-123" H 9625 4600 50  0001 C CNN
F 3 "https://en.wikipedia.org/wiki/Zener_diode" H 9625 4600 50  0001 C CNN
	1    9625 4600
	-1   0    0    -1  
$EndComp
Wire Wire Line
	8900 5000 8850 5000
Wire Wire Line
	10175 4800 10175 4700
$Comp
L device:R R7
U 1 1 5A89DC55
P 10175 5400
F 0 "R7" H 10245 5446 50  0000 L CNN
F 1 "1" H 10245 5355 50  0000 L CNN
F 2 "Resistors_SMD:R_1206" V 10105 5400 50  0001 C CNN
F 3 "" H 10175 5400 50  0001 C CNN
	1    10175 5400
	-1   0    0    -1  
$EndComp
$Comp
L power:GND #PWR010
U 1 1 5A89DC5C
P 10175 5600
F 0 "#PWR010" H 10175 5350 50  0001 C CNN
F 1 "GND" H 10180 5427 50  0000 C CNN
F 2 "" H 10175 5600 50  0001 C CNN
F 3 "" H 10175 5600 50  0001 C CNN
	1    10175 5600
	-1   0    0    -1  
$EndComp
Wire Wire Line
	10175 5600 10175 5550
Wire Wire Line
	10175 5250 10175 5225
Wire Wire Line
	7900 5000 8500 5000
Text GLabel 7150 4825 1    50   Input ~ 0
CURSHARER
Wire Wire Line
	7300 4900 7150 4900
Wire Wire Line
	7150 4900 7150 4825
$Comp
L power:VCC #PWR011
U 1 1 5A89DC7E
P 7500 4550
F 0 "#PWR011" H 7500 4400 50  0001 C CNN
F 1 "VCC" H 7517 4723 50  0000 C CNN
F 2 "" H 7500 4550 50  0001 C CNN
F 3 "" H 7500 4550 50  0001 C CNN
	1    7500 4550
	-1   0    0    -1  
$EndComp
$Comp
L power:GND #PWR012
U 1 1 5A89DC88
P 7500 5400
F 0 "#PWR012" H 7500 5150 50  0001 C CNN
F 1 "GND" H 7505 5227 50  0000 C CNN
F 2 "" H 7500 5400 50  0001 C CNN
F 3 "" H 7500 5400 50  0001 C CNN
	1    7500 5400
	-1   0    0    -1  
$EndComp
Wire Wire Line
	7500 5300 7500 5350
Wire Wire Line
	7600 5300 7600 5350
Wire Wire Line
	7600 5350 7500 5350
Connection ~ 7500 5350
Wire Wire Line
	7500 5350 7500 5400
$Comp
L power:GND #PWR013
U 1 1 5A89DC93
P 9400 4625
F 0 "#PWR013" H 9400 4375 50  0001 C CNN
F 1 "GND" H 9405 4452 50  0000 C CNN
F 2 "" H 9400 4625 50  0001 C CNN
F 3 "" H 9400 4625 50  0001 C CNN
	1    9400 4625
	-1   0    0    -1  
$EndComp
Wire Wire Line
	9775 4600 9850 4600
Wire Wire Line
	9850 4600 9850 5000
Wire Wire Line
	9875 5000 9850 5000
Connection ~ 9850 5000
Wire Wire Line
	9850 5000 9300 5000
Wire Wire Line
	9475 4600 9400 4600
Wire Wire Line
	9400 4600 9400 4625
Wire Wire Line
	10175 5225 9750 5225
Wire Wire Line
	9750 5225 9750 5900
Wire Wire Line
	9750 5900 9075 5900
Wire Wire Line
	7200 5900 7200 5100
Wire Wire Line
	7200 5100 7300 5100
Connection ~ 10175 5225
Wire Wire Line
	10175 5225 10175 5200
$Comp
L device:R R6
U 1 1 5A89DCA7
P 6975 5100
F 0 "R6" V 6768 5100 50  0000 C CNN
F 1 "220" V 6859 5100 50  0000 C CNN
F 2 "Resistors_SMD:R_0603" V 6905 5100 50  0001 C CNN
F 3 "" H 6975 5100 50  0001 C CNN
	1    6975 5100
	0    -1   1    0   
$EndComp
Wire Wire Line
	7200 5100 7125 5100
Connection ~ 7200 5100
Text GLabel 6150 4900 1    50   Input ~ 0
CURSHARE
Wire Wire Line
	5575 5100 6150 5100
Wire Wire Line
	6150 5100 6150 4900
Connection ~ 6150 5100
$Comp
L Amplifier_Operational:LM358_DFN U1
U 2 1 5A89DC64
P 7600 5000
F 0 "U1" H 7941 5046 50  0000 L CNN
F 1 "LM358_DFN" H 7941 4955 50  0000 L CNN
F 2 "Housings_DFN_QFN:DFN-8-1EP_2x2mm_Pitch0.5mm" H 7600 5000 50  0001 C CNN
F 3 "www.st.com/resource/en/datasheet/lm358.pdf" H 7600 5000 50  0001 C CNN
	2    7600 5000
	1    0    0    -1  
$EndComp
$Comp
L device:C C2
U 1 1 5A8A7AD3
P 3550 1225
F 0 "C2" H 3665 1271 50  0000 L CNN
F 1 "10u" H 3665 1180 50  0000 L CNN
F 2 "Capacitors_SMD:C_1210" H 3588 1075 50  0001 C CNN
F 3 "" H 3550 1225 50  0001 C CNN
	1    3550 1225
	1    0    0    -1  
$EndComp
$Comp
L power:GND #PWR015
U 1 1 5A8A7D51
P 3550 1500
F 0 "#PWR015" H 3550 1250 50  0001 C CNN
F 1 "GND" H 3555 1327 50  0000 C CNN
F 2 "" H 3550 1500 50  0001 C CNN
F 3 "" H 3550 1500 50  0001 C CNN
	1    3550 1500
	1    0    0    -1  
$EndComp
$Comp
L power:VCC #PWR017
U 1 1 5A8A9493
P 3550 950
F 0 "#PWR017" H 3550 800 50  0001 C CNN
F 1 "VCC" H 3567 1123 50  0000 C CNN
F 2 "" H 3550 950 50  0001 C CNN
F 3 "" H 3550 950 50  0001 C CNN
	1    3550 950 
	1    0    0    -1  
$EndComp
Wire Wire Line
	7500 4550 7500 4700
Wire Wire Line
	3550 1500 3550 1375
Wire Wire Line
	3550 1075 3550 950 
Text Notes 7000 2450 0    100  ~ 0
check transistor footprint
Wire Wire Line
	5100 1150 5100 1325
$Comp
L device:D_Zener D9
U 1 1 5A8B598E
P 4800 2075
F 0 "D9" V 4754 2154 50  0000 L CNN
F 1 "MM3Z5V6ST1G" V 4845 2154 50  0000 L CNN
F 2 "Diodes_SMD:SOD-123" H 4800 2075 50  0001 C CNN
F 3 "https://en.wikipedia.org/wiki/Zener_diode" H 4800 2075 50  0001 C CNN
	1    4800 2075
	0    1    1    0   
$EndComp
$Comp
L device:Q_DUAL_PNP_PNP_C1B1B2C2E2E1 Q2
U 1 1 5A8B03D0
P 5000 1525
F 0 "Q2" H 5191 1479 50  0000 L CNN
F 1 "SBC857BDW1T1G" H 5191 1570 50  0000 L CNN
F 2 "TO_SOT_Packages_SMD:SOT-363_SC-70-6" H 5200 1625 50  0001 C CNN
F 3 "https://www.diodes.com/assets/Datasheets/ds30437.pdf" H 5000 1525 50  0001 C CNN
	1    5000 1525
	1    0    0    1   
$EndComp
Wire Wire Line
	4800 1525 4800 1825
Wire Wire Line
	4800 1825 5100 1825
Wire Wire Line
	5100 1825 5100 1725
Wire Wire Line
	4800 1925 4800 1825
Connection ~ 4800 1825
$Comp
L device:R R2
U 1 1 5A8B9CBC
P 4800 2550
F 0 "R2" H 4870 2596 50  0000 L CNN
F 1 "1M" H 4870 2505 50  0000 L CNN
F 2 "Resistors_SMD:R_0603" V 4730 2550 50  0001 C CNN
F 3 "" H 4800 2550 50  0001 C CNN
	1    4800 2550
	1    0    0    -1  
$EndComp
Wire Wire Line
	4800 2400 4800 2300
Wire Wire Line
	5625 2300 4800 2300
Connection ~ 4800 2300
Wire Wire Line
	4800 2300 4800 2225
$Comp
L power:GND #PWR018
U 1 1 5A8BE40D
P 4800 2775
F 0 "#PWR018" H 4800 2525 50  0001 C CNN
F 1 "GND" H 4805 2602 50  0000 C CNN
F 2 "" H 4800 2775 50  0001 C CNN
F 3 "" H 4800 2775 50  0001 C CNN
	1    4800 2775
	1    0    0    -1  
$EndComp
Wire Wire Line
	4800 2775 4800 2700
$Comp
L device:R R4
U 1 1 5A8C06F4
P 5925 1550
F 0 "R4" H 5995 1596 50  0000 L CNN
F 1 "85k6" H 5995 1505 50  0000 L CNN
F 2 "Resistors_SMD:R_0603" V 5855 1550 50  0001 C CNN
F 3 "" H 5925 1550 50  0001 C CNN
	1    5925 1550
	1    0    0    -1  
$EndComp
$Comp
L power:VCC #PWR019
U 1 1 5A8C0A07
P 5425 1050
F 0 "#PWR019" H 5425 900 50  0001 C CNN
F 1 "VCC" H 5442 1223 50  0000 C CNN
F 2 "" H 5425 1050 50  0001 C CNN
F 3 "" H 5425 1050 50  0001 C CNN
	1    5425 1050
	1    0    0    -1  
$EndComp
Wire Wire Line
	5100 1150 5425 1150
Wire Wire Line
	5925 1150 5925 1400
Wire Wire Line
	5425 1050 5425 1150
Connection ~ 5425 1150
Wire Wire Line
	5425 1150 5925 1150
Text GLabel 6675 1700 3    50   Input ~ 0
CURSHARER
$Comp
L device:R R5
U 1 1 5A8C515D
P 6675 1450
F 0 "R5" H 6745 1496 50  0000 L CNN
F 1 "DNP(330k)" H 6745 1405 50  0000 L CNN
F 2 "Resistors_SMD:R_1206" V 6605 1450 50  0001 C CNN
F 3 "" H 6675 1450 50  0001 C CNN
	1    6675 1450
	1    0    0    -1  
$EndComp
Wire Wire Line
	6675 1700 6675 1600
Wire Wire Line
	6675 1300 6675 1150
Wire Wire Line
	6675 1150 5925 1150
Connection ~ 5925 1150
Wire Wire Line
	5925 1700 5925 2100
Text GLabel 5925 3000 3    50   Input ~ 0
CURSHARE
$Comp
L device:C C4
U 1 1 5A8CF617
P 6150 5325
F 0 "C4" H 6265 5371 50  0000 L CNN
F 1 "100n" H 6265 5280 50  0000 L CNN
F 2 "Resistors_SMD:R_0603" H 6188 5175 50  0001 C CNN
F 3 "" H 6150 5325 50  0001 C CNN
	1    6150 5325
	1    0    0    -1  
$EndComp
$Comp
L power:GND #PWR020
U 1 1 5A8CF796
P 6150 5525
F 0 "#PWR020" H 6150 5275 50  0001 C CNN
F 1 "GND" H 6155 5352 50  0000 C CNN
F 2 "" H 6150 5525 50  0001 C CNN
F 3 "" H 6150 5525 50  0001 C CNN
	1    6150 5525
	1    0    0    -1  
$EndComp
Wire Wire Line
	6150 5525 6150 5475
Wire Wire Line
	6150 5175 6150 5100
Wire Wire Line
	2225 3325 2225 3275
Wire Wire Line
	10175 3325 10175 3275
Wire Wire Line
	8850 5400 8850 5350
Wire Wire Line
	9300 5400 9300 5350
Wire Wire Line
	8850 5050 8850 5000
Connection ~ 8850 5000
Wire Wire Line
	8850 5000 8800 5000
Wire Wire Line
	9300 5050 9300 5000
Connection ~ 9300 5000
Wire Wire Line
	9300 5000 9200 5000
Wire Wire Line
	8850 5400 9075 5400
Wire Wire Line
	9075 5400 9075 5900
Connection ~ 9075 5400
Wire Wire Line
	9075 5400 9300 5400
Connection ~ 9075 5900
Wire Wire Line
	9075 5900 7200 5900
Wire Wire Line
	3550 5375 2875 5375
Wire Wire Line
	2875 5375 2650 5375
Connection ~ 2650 5375
Wire Wire Line
	2650 5375 2650 5900
Wire Wire Line
	2875 5075 2875 5000
Connection ~ 2875 5000
Wire Wire Line
	2875 5000 3200 5000
Wire Wire Line
	3550 5075 3550 5000
Connection ~ 3550 5000
Wire Wire Line
	3550 5000 3600 5000
$Comp
L device:Q_DUAL_PNP_PNP_C1B1B2C2E2E1 Q2
U 2 1 5A8D36DC
P 5825 2300
F 0 "Q2" H 6016 2254 50  0000 L CNN
F 1 "SBC857BDW1T1G" H 6016 2345 50  0000 L CNN
F 2 "TO_SOT_Packages_SMD:SOT-363_SC-70-6" H 6025 2400 50  0001 C CNN
F 3 "https://www.diodes.com/assets/Datasheets/ds30437.pdf" H 5825 2300 50  0001 C CNN
	2    5825 2300
	1    0    0    1   
$EndComp
$Comp
L device:R R9
U 1 1 5A8DAC3C
P 3750 5000
F 0 "R9" V 3543 5000 50  0000 C CNN
F 1 "680" V 3634 5000 50  0000 C CNN
F 2 "Resistors_SMD:R_0603" V 3680 5000 50  0001 C CNN
F 3 "" H 3750 5000 50  0001 C CNN
	1    3750 5000
	0    1    1    0   
$EndComp
$Comp
L device:R R8
U 1 1 5A8DADE0
P 3350 5000
F 0 "R8" V 3143 5000 50  0000 C CNN
F 1 "680" V 3234 5000 50  0000 C CNN
F 2 "Resistors_SMD:R_0603" V 3280 5000 50  0001 C CNN
F 3 "" H 3350 5000 50  0001 C CNN
	1    3350 5000
	0    1    1    0   
$EndComp
$Comp
L device:C C6
U 1 1 5A8DB01D
P 3550 5225
F 0 "C6" H 3665 5271 50  0000 L CNN
F 1 "470p" H 3665 5180 50  0000 L CNN
F 2 "Resistors_SMD:R_0603" H 3588 5075 50  0001 C CNN
F 3 "" H 3550 5225 50  0001 C CNN
	1    3550 5225
	1    0    0    -1  
$EndComp
$Comp
L device:C C5
U 1 1 5A8DB147
P 2875 5225
F 0 "C5" H 2990 5271 50  0000 L CNN
F 1 "470p" H 2990 5180 50  0000 L CNN
F 2 "Resistors_SMD:R_0603" H 2913 5075 50  0001 C CNN
F 3 "" H 2875 5225 50  0001 C CNN
	1    2875 5225
	1    0    0    -1  
$EndComp
Connection ~ 2875 5375
$Comp
L device:R R10
U 1 1 5A8E0637
P 8650 5000
F 0 "R10" V 8443 5000 50  0000 C CNN
F 1 "680" V 8534 5000 50  0000 C CNN
F 2 "Resistors_SMD:R_0603" V 8580 5000 50  0001 C CNN
F 3 "" H 8650 5000 50  0001 C CNN
	1    8650 5000
	0    1    1    0   
$EndComp
$Comp
L device:R R11
U 1 1 5A8E0851
P 9050 5000
F 0 "R11" V 8843 5000 50  0000 C CNN
F 1 "680" V 8934 5000 50  0000 C CNN
F 2 "Resistors_SMD:R_0603" V 8980 5000 50  0001 C CNN
F 3 "" H 9050 5000 50  0001 C CNN
	1    9050 5000
	0    1    1    0   
$EndComp
$Comp
L device:C C7
U 1 1 5A8E0A80
P 8850 5200
F 0 "C7" H 8965 5246 50  0000 L CNN
F 1 "470p" H 8965 5155 50  0000 L CNN
F 2 "Resistors_SMD:R_0603" H 8888 5050 50  0001 C CNN
F 3 "" H 8850 5200 50  0001 C CNN
	1    8850 5200
	1    0    0    -1  
$EndComp
$Comp
L device:C C8
U 1 1 5A8E0C8D
P 9300 5200
F 0 "C8" H 9415 5246 50  0000 L CNN
F 1 "470p" H 9415 5155 50  0000 L CNN
F 2 "Resistors_SMD:R_0603" H 9338 5050 50  0001 C CNN
F 3 "" H 9300 5200 50  0001 C CNN
	1    9300 5200
	1    0    0    -1  
$EndComp
$Comp
L device:R R12
U 1 1 5A8E2577
P 5925 2775
F 0 "R12" H 5995 2821 50  0000 L CNN
F 1 "0" H 5995 2730 50  0000 L CNN
F 2 "Resistors_SMD:R_0603" V 5855 2775 50  0001 C CNN
F 3 "" H 5925 2775 50  0001 C CNN
	1    5925 2775
	1    0    0    -1  
$EndComp
Wire Wire Line
	5925 3000 5925 2925
Wire Wire Line
	5925 2500 5925 2625
Text GLabel 1800 1050 3    50   Input ~ 0
CURSHARER
Wire Wire Line
	1800 1050 1800 950 
Wire Wire Line
	1800 950  1900 950 
Wire Wire Line
	1275 850  1900 850 
$Comp
L device:R R13
U 1 1 5A8F6B79
P 1650 950
F 0 "R13" V 1443 950 50  0000 C CNN
F 1 "0" V 1534 950 50  0000 C CNN
F 2 "Resistors_SMD:R_0603" V 1580 950 50  0001 C CNN
F 3 "" H 1650 950 50  0001 C CNN
	1    1650 950 
	0    1    1    0   
$EndComp
Connection ~ 1800 950 
Text GLabel 6750 5050 1    50   Input ~ 0
CURSHARER
Wire Wire Line
	6750 5050 6750 5100
Wire Wire Line
	6750 5100 6825 5100
$Comp
L power:GND #PWR021
U 1 1 5A8FC710
P 975 2825
F 0 "#PWR021" H 975 2575 50  0001 C CNN
F 1 "GND" H 980 2652 50  0000 C CNN
F 2 "" H 975 2825 50  0001 C CNN
F 3 "" H 975 2825 50  0001 C CNN
	1    975  2825
	1    0    0    -1  
$EndComp
$Comp
L power:GND #PWR022
U 1 1 5A8FC77E
P 1200 2825
F 0 "#PWR022" H 1200 2575 50  0001 C CNN
F 1 "GND" H 1205 2652 50  0000 C CNN
F 2 "" H 1200 2825 50  0001 C CNN
F 3 "" H 1200 2825 50  0001 C CNN
	1    1200 2825
	1    0    0    -1  
$EndComp
$Comp
L Connector_Generic:Conn_01x01 J3
U 1 1 5A8FCA4C
P 975 2550
F 0 "J3" V 941 2462 50  0000 R CNN
F 1 "0" V 850 2462 50  0000 R CNN
F 2 "mod:2mm_holes" H 975 2550 50  0001 C CNN
F 3 "~" H 975 2550 50  0001 C CNN
	1    975  2550
	0    -1   -1   0   
$EndComp
$Comp
L Connector_Generic:Conn_01x01 J4
U 1 1 5A8FCB7E
P 1200 2550
F 0 "J4" V 1166 2462 50  0000 R CNN
F 1 "0" V 1075 2462 50  0000 R CNN
F 2 "mod:2mm_holes" H 1200 2550 50  0001 C CNN
F 3 "~" H 1200 2550 50  0001 C CNN
	1    1200 2550
	0    -1   -1   0   
$EndComp
Wire Wire Line
	975  2825 975  2750
Wire Wire Line
	1200 2825 1200 2750
Wire Wire Line
	1900 1050 1900 1575
Wire Wire Line
	1900 1575 1325 1575
Wire Wire Line
	1325 1575 1325 1050
Wire Wire Line
	1325 1050 1250 1050
Wire Wire Line
	1250 1100 1250 1050
Connection ~ 1250 1050
Wire Wire Line
	1250 1050 1225 1050
$EndSCHEMATC
